GameBattingID,Date,Opponent,Status,AtBat,Runs,Hits,RunsBattedIn,Double,Triple,HomeRuns,Walk,IntentionalWalk,StolenBase,CaughtStealing,HitByPitch,SacrificeBunt,SacrificeFly,TimesGroundedintoDoublePlays,Strikeout,Putout,Assist,Error,Avg,Season,Type
1,2/6/2015,Northwestern Okla St,L,37,11,13,9,3,1,2,7,0,0,2,2,0,1,0,8,24,12,4,0.351,2015,Batting
2,2/7/2015,Regis University,L,32,7,8,7,1,1,1,7,0,0,1,0,0,1,0,6,27,11,0,0.25,2015,Batting
3,2/7/2015,Northwestern Okla St,W,43,16,16,14,6,0,0,6,0,4,0,4,0,0,2,5,27,10,1,0.372,2015,Batting
4,2/13/2015,Cameron,L,24,2,5,2,1,0,0,1,0,0,2,1,0,1,0,7,18,6,2,0.208,2015,Batting
5,2/13/2015,Cameron,W,37,5,8,5,0,0,1,5,0,1,0,0,0,0,0,5,27,13,4,0.216,2015,Batting
6,2/14/2015,Cameron,L,23,1,2,1,0,0,0,4,0,0,0,0,0,0,0,5,18,10,0,0.087,2015,Batting
7,2/14/2015,Cameron,L,37,4,10,2,0,0,0,3,0,2,1,0,1,0,0,8,24,6,1,0.27,2015,Batting
8,2/19/2015,Northeastern State,L,25,1,6,1,0,0,0,4,0,2,2,1,0,0,0,8,18,10,2,0.24,2015,Batting
9,2/19/2015,Northeastern State,W,38,12,10,8,2,0,1,9,1,3,0,3,0,0,0,9,27,9,2,0.263,2015,Batting
10,2/20/2015,Northeastern State,L,27,1,8,1,1,0,0,3,0,0,0,0,0,0,0,7,18,4,2,0.296,2015,Batting
11,2/20/2015,Northeastern State,W,32,7,8,6,2,0,1,8,1,1,1,1,1,0,0,8,27,14,0,0.25,2015,Batting
12,3/7/2015,Central Missouri,W,31,2,6,0,0,0,0,4,0,1,0,2,2,0,0,6,27,11,1,0.194,2015,Batting
13,3/8/2015,Central Missouri,L,25,4,7,3,0,0,0,5,0,0,1,3,0,0,2,4,18,5,0,0.28,2015,Batting
14,3/8/2015,Central Missouri,W,26,5,8,4,1,0,0,1,0,0,0,2,1,2,1,2,21,11,1,0.308,2015,Batting
15,3/9/2015,Central Missouri,L,29,4,9,2,2,0,0,2,0,0,0,0,0,0,1,6,18,13,5,0.31,2015,Batting
16,3/13/2015,Nebraska Kearney,W,35,20,17,13,5,1,0,10,0,3,0,5,0,0,0,3,21,5,1,0.486,2015,Batting
17,3/14/2015,Nebraska Kearney,L,28,4,6,4,2,0,0,1,0,0,0,0,0,0,1,2,21,7,2,0.214,2015,Batting
18,3/14/2015,Nebraska Kearney,L,27,3,6,3,1,0,0,3,0,3,0,2,1,0,0,11,21,6,2,0.222,2015,Batting
19,3/15/2015,Nebraska Kearney,W,32,7,10,7,1,0,1,2,0,0,0,0,0,2,1,8,27,13,1,0.313,2015,Batting
20,3/17/2015,Quincy,W,32,10,11,10,2,0,2,6,0,0,0,3,3,0,1,4,27,14,0,0.344,2015,Batting
21,3/20/2015,Fort Hays State,W,29,4,7,4,1,0,1,6,0,1,1,0,0,0,1,6,27,13,0,0.241,2015,Batting
22,3/21/2015,Fort Hays State,W,23,8,8,6,1,2,0,6,0,1,0,0,1,3,1,5,21,5,0,0.348,2015,Batting
23,3/21/2015,Fort Hays State,L,30,5,9,5,4,0,0,0,0,0,0,0,0,0,0,5,21,13,2,0.3,2015,Batting
24,3/22/2015,Fort Hays State,W,30,4,6,4,1,0,0,6,0,2,0,1,3,1,0,6,27,7,3,0.2,2015,Batting
25,3/25/2015,Culver-Stockton,L,32,3,7,2,2,0,0,3,0,0,1,2,0,1,0,5,24,10,1,0.219,2015,Batting
26,3/25/2015,Quincy,W,41,4,7,3,2,0,0,8,0,1,2,1,1,0,2,7,39,12,3,0.171,2015,Batting
27,3/27/2015,Pittsburg State,W,36,7,10,6,0,0,1,0,0,0,2,0,1,1,0,5,27,12,0,0.278,2015,Batting
28,3/28/2015,Pittsburg State,L,24,3,7,3,0,0,1,2,0,0,0,1,3,0,0,4,18,9,1,0.292,2015,Batting
29,3/28/2015,Pittsburg State,W,34,9,12,9,2,0,1,5,0,3,0,0,0,0,0,10,21,8,3,0.353,2015,Batting
30,3/29/2015,Pittsburg State,L,33,6,8,4,2,1,0,4,0,2,1,1,1,1,0,4,24,15,0,0.242,2015,Batting
31,3/31/2015,Peru State,W,31,8,9,8,1,1,0,8,0,1,1,1,3,1,3,3,30,12,3,0.29,2015,Batting
32,4/2/2015,Lindenwood,L,35,9,11,8,0,1,2,2,0,2,0,4,3,0,2,7,27,10,3,0.314,2015,Batting
33,4/3/2015,Lindenwood,W,35,6,9,4,3,0,1,3,0,3,0,0,0,0,0,7,27,12,2,0.257,2015,Batting
34,4/4/2015,Lindenwood,L,22,2,2,2,0,0,1,8,0,0,0,3,1,0,2,1,21,8,1,0.091,2015,Batting
35,4/4/2015,Lindenwood,W,24,7,8,6,2,0,1,2,0,1,0,3,1,0,0,4,21,8,3,0.333,2015,Batting
36,4/10/2015,Emporia State,L,35,4,7,4,1,0,1,0,0,0,1,0,0,0,0,7,24,6,1,0.2,2015,Batting
37,4/11/2015,Emporia State,L,32,6,8,5,0,0,1,2,0,0,0,0,0,0,0,5,18,5,2,0.25,2015,Batting
38,4/11/2015,Emporia State,W,33,8,10,5,2,0,2,4,0,1,0,0,0,0,0,9,21,8,1,0.303,2015,Batting
39,4/12/2015,Emporia State,L,43,9,16,9,0,0,2,2,0,1,0,1,0,1,0,7,26,9,1,0.372,2015,Batting
40,4/16/2015,Washburn,L,26,2,7,1,1,0,0,3,0,0,0,0,0,0,1,3,21,8,2,0.269,2015,Batting
41,4/16/2015,Washburn,L,35,3,9,3,0,0,3,0,0,0,1,1,0,0,0,5,27,5,4,0.257,2015,Batting
42,4/17/2015,Washburn,L,27,5,8,4,1,0,0,3,0,0,1,1,1,0,0,3,21,8,0,0.296,2015,Batting
43,4/17/2015,Washburn,L,40,5,15,5,3,0,1,4,0,0,0,2,1,0,1,5,27,9,2,0.375,2015,Batting
44,4/21/2015,Midland University,L,32,5,7,3,2,0,1,6,0,1,2,2,0,0,0,6,27,12,1,0.219,2015,Batting
45,4/23/2015,Missouri Western,L,28,2,8,1,0,0,0,2,0,2,0,2,1,0,1,6,18,6,2,0.286,2015,Batting
46,4/23/2015,Missouri Western,W,32,2,5,1,1,0,0,6,0,1,0,1,0,0,1,9,27,7,1,0.156,2015,Batting
47,4/24/2015,Missouri Western,L,34,5,9,3,1,1,0,3,0,0,0,1,0,0,0,3,23,13,0,0.265,2015,Batting
48,4/24/2015,Missouri Western,L,37,3,12,3,2,1,0,5,0,1,0,0,1,0,1,9,25,14,1,0.324,2015,Batting
49,2/10/2014,NW Oklahoma State,W,32,17,11,17,0,1,0,14,0,1,0,3,0,1,0,7,21,5,0,0.344,2014,Batting
50,2/10/2014,NW Oklahoma State,L,25,1,5,1,0,0,0,1,0,0,0,0,0,0,0,5,18,14,2,0.2,2014,Batting
51,2/14/2014,Cameron,W,34,8,10,6,3,0,1,4,0,0,0,1,3,0,0,6,27,10,1,0.294,2014,Batting
52,2/14/2014,Cameron,L,21,0,1,0,0,0,0,0,0,0,1,0,0,0,0,5,18,8,4,0.048,2014,Batting
53,2/15/2014,Cameron,W,36,5,12,5,2,0,0,2,0,0,0,1,1,1,0,5,27,14,1,0.333,2014,Batting
54,2/15/2014,Cameron,L,31,6,10,6,4,0,3,3,0,0,0,0,0,0,0,2,18,5,2,0.323,2014,Batting
55,2/21/2014,Nebraska-Kearney,W,40,13,17,12,3,0,1,4,0,1,0,0,4,0,1,3,27,2,1,0.425,2014,Batting
56,2/22/2014,Nebraska-Kearney,L,32,7,8,4,1,0,0,2,0,0,0,2,0,0,1,5,18,6,0,0.25,2014,Batting
57,2/22/2014,Nebraska-Kearney,L,26,5,9,4,2,0,0,5,0,0,2,0,2,2,0,3,18,7,1,0.346,2014,Batting
58,2/23/2014,Nebraska-Kearney,W,36,8,11,7,3,1,0,4,0,1,0,1,2,0,1,4,27,13,0,0.306,2014,Batting
59,2/28/2014,Missouri Western,W,25,7,9,4,1,1,0,5,0,3,3,0,0,0,0,5,21,6,0,0.36,2014,Batting
60,2/28/2014,Missouri Western,W,37,7,11,7,0,0,0,2,0,1,0,2,0,0,0,6,27,10,0,0.297,2014,Batting
61,3/6/2014,Lincoln,W,29,9,10,8,5,0,0,6,0,2,1,2,0,1,0,3,21,5,0,0.345,2014,Batting
62,3/6/2014,Lincoln,W,38,7,12,7,3,0,1,4,0,1,2,2,0,0,0,4,27,13,2,0.316,2014,Batting
63,3/7/2014,Lincoln,W,33,12,14,12,5,1,1,3,0,1,1,0,0,1,0,3,21,13,1,0.424,2014,Batting
64,3/7/2014,Lincoln,W,40,11,14,11,5,1,0,5,0,0,0,1,0,0,0,4,27,10,1,0.35,2014,Batting
65,3/14/2014,Southwest Baptist,L,36,8,10,7,3,0,0,10,0,2,0,2,0,1,0,7,27,15,4,0.278,2014,Batting
66,3/15/2014,Southwest Baptist,L,29,7,9,6,0,0,1,5,0,2,0,3,1,0,0,1,21,6,2,0.31,2014,Batting
67,3/15/2014,Southwest Baptist,L,25,4,10,4,0,0,0,2,0,0,0,1,5,0,0,5,21,8,0,0.4,2014,Batting
68,3/18/2014,William Jewell,W,27,4,9,4,3,0,1,2,1,0,0,1,2,0,2,4,27,11,0,0.333,2014,Batting
69,3/21/2014,Fort Hays State,W,39,18,18,16,3,0,3,6,0,0,0,2,0,2,0,1,21,7,0,0.462,2014,Batting
70,3/22/2014,Fort Hays State,L,28,6,6,3,2,0,0,1,0,1,1,0,0,1,0,7,20,7,3,0.214,2014,Batting
71,3/22/2014,Fort Hays State,W,32,7,12,7,0,1,2,2,0,2,0,3,1,0,0,2,21,9,0,0.375,2014,Batting
72,3/23/2014,Fort Hays State,L,41,11,14,11,5,0,0,7,0,0,0,1,1,0,2,3,29,10,2,0.341,2014,Batting
73,3/26/2014,Rockhurst,W,28,10,9,6,2,0,0,8,0,1,0,3,2,1,1,9,27,14,2,0.321,2014,Batting
74,3/28/2014,Washburn,L,29,0,4,0,0,0,0,3,0,0,0,0,0,0,2,5,23,12,1,0.138,2014,Batting
75,3/29/2014,Washburn,L,27,5,5,5,1,0,1,3,0,1,0,2,0,0,0,5,18,9,1,0.185,2014,Batting
76,3/29/2014,Washburn,L,29,8,9,5,1,0,1,4,0,2,0,2,0,1,1,8,18,6,3,0.31,2014,Batting
77,3/30/2014,Washburn,W,31,7,5,6,2,1,0,4,0,1,1,2,1,0,0,4,27,13,1,0.161,2014,Batting
78,4/5/2014,Missouri Southern,W,34,2,5,2,1,0,0,3,0,0,0,2,1,0,0,9,30,12,0,0.147,2014,Batting
79,4/5/2014,Missouri Southern,W,36,4,10,3,2,0,0,4,0,0,0,0,1,0,1,12,30,14,0,0.278,2014,Batting
80,4/6/2014,Missouri Southern,W,22,4,8,4,1,0,0,4,0,1,0,1,2,0,1,0,21,10,1,0.364,2014,Batting
81,4/6/2014,Missouri Southern,L,40,3,7,3,0,0,0,6,0,0,0,2,1,0,0,6,33,20,3,0.175,2014,Batting
82,4/11/2014,Cenral Missouri,L,24,1,4,1,1,0,0,3,0,0,0,1,0,0,1,3,21,15,1,0.167,2014,Batting
83,4/11/2014,Cenral Missouri,L,34,6,9,6,3,0,0,4,0,1,0,1,1,0,0,8,27,19,1,0.265,2014,Batting
84,4/12/2014,Cenral Missouri,W,24,4,6,3,1,0,0,1,0,1,0,1,1,0,1,6,21,9,1,0.25,2014,Batting
85,4/12/2014,Cenral Missouri,L,32,0,5,0,3,0,0,3,0,1,0,1,0,0,0,9,27,12,2,0.156,2014,Batting
86,4/15/2014,Midland University,W,33,4,7,3,2,0,0,9,0,0,0,0,1,1,0,4,27,12,0,0.212,2014,Batting
87,4/18/2014,Emporia State,L,25,2,5,0,2,0,0,2,0,1,0,0,0,0,1,10,19,5,0,0.2,2014,Batting
88,4/18/2014,Emporia State,L,33,1,6,1,1,0,0,2,0,0,0,1,0,0,0,12,24,7,0,0.182,2014,Batting
89,4/19/2014,Emporia State,L,37,7,11,7,3,0,3,1,0,0,0,0,0,0,0,5,24,13,0,0.297,2014,Batting
90,4/19/2014,Emporia State,L,28,2,9,2,1,0,1,0,0,0,0,0,0,0,2,8,20,5,1,0.321,2014,Batting
91,4/25/2014,Pittsburg State,L,33,3,11,3,2,0,1,3,0,0,1,1,0,1,1,4,27,14,2,0.333,2014,Batting
92,4/25/2014,Pittsburg State,L,24,2,5,0,1,0,0,4,0,0,0,1,0,0,2,6,21,13,1,0.208,2014,Batting
93,4/26/2014,Pittsburg State,W,31,11,15,10,2,1,0,6,0,1,0,0,1,0,1,4,21,11,1,0.484,2014,Batting
94,4/26/2014,Pittsburg State,W,38,8,14,8,5,0,0,3,0,1,0,2,0,0,0,2,27,16,2,0.368,2014,Batting
,,,,,,,,,,,,,,,,,,,,,,,,,
